{
  "objects" : [
    {
      "color": {
        "red": 0,
        "green": 1,
        "blue": 1
      },
      "aspect_ratio": "",
      "name": "10182---CONNEXION DES COL 100ml",
      "attributes": [],
      "hidden": false
    },
    {
      "color": {
        "red": 0,
        "green": 1,
        "blue": 1
      },
      "aspect_ratio": "",
      "name": "13370---CAPRICHO LOC HID DES CPO 200g V2",
      "attributes": [],
      "hidden": false
    },
    {
      "color": {
        "red": 0,
        "green": 1,
        "blue": 1
      },
      "aspect_ratio": "",
      "name": "14301---NSPA LOC HID DES CPO VERBENA ALOE 400ml",
      "attributes": [],
      "hidden": false
    },
    {
      "color": {
        "red": 0,
        "green": 1,
        "blue": 1
      },
      "aspect_ratio": "",
      "name": "15018---CUIDE SE BEM LOCAO H D CPO PR C/AN 100ml",
      "attributes": [],
      "hidden": false
    },
    {
      "color": {
        "red": 0,
        "green": 1,
        "blue": 1
      },
      "aspect_ratio": "",
      "name": "15779---PETIT SOPHIE COND CAB LISO FINO 100ml",
      "attributes": [],
      "hidden": false
    },
    {
      "color": {
        "red": 0,
        "green": 1,
        "blue": 1
      },
      "aspect_ratio": "",
      "name": "15891---PETIT SOPHIE COND CAB CACHEADO 100ml",
      "attributes": [],
      "hidden": false
    },
    {
      "color": {
        "red": 0,
        "green": 1,
        "blue": 1
      },
      "aspect_ratio": "",
      "name": "16341---REF CBEM LOC HID LEITE E MEL 400ml V2",
      "attributes": [],
      "hidden": false
    },
    {
      "color": {
        "red": 0,
        "green": 1,
        "blue": 1
      },
      "aspect_ratio": "",
      "name": "16921---NSPA LOC HID DES CPO MONOI ARGAN 400ml",
      "attributes": [],
      "hidden": false
    },
    {
      "color": {
        "red": 0,
        "green": 1,
        "blue": 1
      },
      "aspect_ratio": "",
      "name": "19685---ELYSEE EDP 50ml",
      "attributes": [],
      "hidden": false
    },
    {
      "color": {
        "red": 0,
        "green": 1,
        "blue": 1
      },
      "aspect_ratio": "",
      "name": "19741---MAKE B EDP 30ml",
      "attributes": [],
      "hidden": false
    },
    {
      "color": {
        "red": 0,
        "green": 1,
        "blue": 1
      },
      "aspect_ratio": "",
      "name": "20180---QUASAR FIRE MASC DES COL 125ml V3",
      "attributes": [],
      "hidden": false
    },
    {
      "color": {
        "red": 0,
        "green": 1,
        "blue": 1
      },
      "aspect_ratio": "",
      "name": "20600---COFFEE DES COL MAN 100ml V2",
      "attributes": [],
      "hidden": false
    },
    {
      "color": {
        "red": 0,
        "green": 1,
        "blue": 1
      },
      "aspect_ratio": "",
      "name": "20601---COFFEE DES COL WOMAN 100ml V2",
      "attributes": [],
      "hidden": false
    },
    {
      "color": {
        "red": 0,
        "green": 1,
        "blue": 1
      },
      "aspect_ratio": "",
      "name": "20602---COFFEE DES COL MAN SEDUC 100ml V2",
      "attributes": [],
      "hidden": false
    },
    {
      "color": {
        "red": 0,
        "green": 1,
        "blue": 1
      },
      "aspect_ratio": "",
      "name": "20604---COFFEE ESPUM BARB MAN 200ml V2",
      "attributes": [],
      "hidden": false
    },
    {
      "color": {
        "red": 0,
        "green": 1,
        "blue": 1
      },
      "aspect_ratio": "",
      "name": "20842---MALBEC DES COL 100ml V2",
      "attributes": [],
      "hidden": false
    },
    {
      "color": {
        "red": 0,
        "green": 1,
        "blue": 1
      },
      "aspect_ratio": "",
      "name": "21318---GLAMOUR DES COL SEC BL 75ml V3",
      "attributes": [],
      "hidden": false
    },
    {
      "color": {
        "red": 0,
        "green": 1,
        "blue": 1
      },
      "aspect_ratio": "",
      "name": "21319---GLAMOUR DES COL 75ml V5",
      "attributes": [],
      "hidden": false
    },
    {
      "color": {
        "red": 0,
        "green": 1,
        "blue": 1
      },
      "aspect_ratio": "",
      "name": "21372---LILY EDP 30ml",
      "attributes": [],
      "hidden": false
    },
    {
      "color": {
        "red": 0,
        "green": 1,
        "blue": 1
      },
      "aspect_ratio": "",
      "name": "22502---CPRCH LOC HID DES CPO 200ml V3",
      "attributes": [],
      "hidden": false
    },
    {
      "color": {
        "red": 0,
        "green": 1,
        "blue": 1
      },
      "aspect_ratio": "",
      "name": "22516---LINDA DES COL REGULAR 100ML V3",
      "attributes": [],
      "hidden": false
    },
    {
      "color": {
        "red": 0,
        "green": 1,
        "blue": 1
      },
      "aspect_ratio": "",
      "name": "22517---LINDA DES COL RADIANCE 100ml V2",
      "attributes": [],
      "hidden": false
    },
    {
      "color": {
        "red": 0,
        "green": 1,
        "blue": 1
      },
      "aspect_ratio": "",
      "name": "22635---UOMINI DES COL BLACK 100ml V4",
      "attributes": [],
      "hidden": false
    },
    {
      "color": {
        "red": 0,
        "green": 1,
        "blue": 1
      },
      "aspect_ratio": "",
      "name": "22636---UOMINI DES COL 100ml V4",
      "attributes": [],
      "hidden": false
    },
    {
      "color": {
        "red": 0,
        "green": 1,
        "blue": 1
      },
      "aspect_ratio": "",
      "name": "22637---UOMINI ESPUM BARB 200ml V3",
      "attributes": [],
      "hidden": false
    },
    {
      "color": {
        "red": 0,
        "green": 1,
        "blue": 1
      },
      "aspect_ratio": "",
      "name": "22660---UOMINI DES ANTIT AER BLACK 75g V4",
      "attributes": [],
      "hidden": false
    },
    {
      "color": {
        "red": 0,
        "green": 1,
        "blue": 1
      },
      "aspect_ratio": "",
      "name": "23492---STYLETTO DES BODY SPR 100ml PCK V4",
      "attributes": [],
      "hidden": false
    },
    {
      "color": {
        "red": 0,
        "green": 1,
        "blue": 1
      },
      "aspect_ratio": "",
      "name": "23553---NSPA SAB LIQ CPO V/PEO 200ml",
      "attributes": [],
      "hidden": false
    },
    {
      "color": {
        "red": 0,
        "green": 1,
        "blue": 1
      },
      "aspect_ratio": "",
      "name": "23755---MEN POS BARBA BALM 110g V3",
      "attributes": [],
      "hidden": false
    },
    {
      "color": {
        "red": 0,
        "green": 1,
        "blue": 1
      },
      "aspect_ratio": "",
      "name": "23764---MEN PROT HID MULTIACAO 6/1 48ml V2",
      "attributes": [],
      "hidden": false
    },
    {
      "color": {
        "red": 0,
        "green": 1,
        "blue": 1
      },
      "aspect_ratio": "",
      "name": "23769---MEN POS BARBA AZULEN 40g V6",
      "attributes": [],
      "hidden": false
    },
    {
      "color": {
        "red": 0,
        "green": 1,
        "blue": 1
      },
      "aspect_ratio": "",
      "name": "24453---EGEO DES COL DOLCE 90ml",
      "attributes": [],
      "hidden": false
    },
    {
      "color": {
        "red": 0,
        "green": 1,
        "blue": 1
      },
      "aspect_ratio": "",
      "name": "24455---EGEO DES COL BLUE 90ml",
      "attributes": [],
      "hidden": false
    },
    {
      "color": {
        "red": 0,
        "green": 1,
        "blue": 1
      },
      "aspect_ratio": "",
      "name": "24507---EGEO DES COL RED 90ml",
      "attributes": [],
      "hidden": false
    },
    {
      "color": {
        "red": 0,
        "green": 1,
        "blue": 1
      },
      "aspect_ratio": "",
      "name": "24551---EGEO DES ANTIT AER DOLCE 75g V7",
      "attributes": [],
      "hidden": false
    },
    {
      "color": {
        "red": 0,
        "green": 1,
        "blue": 1
      },
      "aspect_ratio": "",
      "name": "24723---UOMINI DES BODY SPR BLACK 100ml PCK",
      "attributes": [],
      "hidden": false
    },
    {
      "color": {
        "red": 0,
        "green": 1,
        "blue": 1
      },
      "aspect_ratio": "",
      "name": "24724---COFFEE DES BODY SPR MAN 100ml PCK",
      "attributes": [],
      "hidden": false
    },
    {
      "color": {
        "red": 0,
        "green": 1,
        "blue": 1
      },
      "aspect_ratio": "",
      "name": "25086---EGEO DES AER ANTIT BLUE 75g",
      "attributes": [],
      "hidden": false
    },
    {
      "color": {
        "red": 0,
        "green": 1,
        "blue": 1
      },
      "aspect_ratio": "",
      "name": "25286---STYLETTO DES COL 100ml V2",
      "attributes": [],
      "hidden": false
    },
    {
      "color": {
        "red": 0,
        "green": 1,
        "blue": 1
      },
      "aspect_ratio": "",
      "name": "25297---GLAMOUR MYRIAD DES COLONIA 75 ml",
      "attributes": [],
      "hidden": false
    },
    {
      "color": {
        "red": 0,
        "green": 1,
        "blue": 1
      },
      "aspect_ratio": "",
      "name": "25332---MEN SHAMP CAB GRISALHOS 200ml V3",
      "attributes": [],
      "hidden": false
    },
    {
      "color": {
        "red": 0,
        "green": 1,
        "blue": 1
      },
      "aspect_ratio": "",
      "name": "25339---LILY DES ANTIT AER 75g V6",
      "attributes": [],
      "hidden": false
    },
    {
      "color": {
        "red": 0,
        "green": 1,
        "blue": 1
      },
      "aspect_ratio": "",
      "name": "25394---MALBEC DES COL ABSOLUTO 100ml V2",
      "attributes": [],
      "hidden": false
    },
    {
      "color": {
        "red": 0,
        "green": 1,
        "blue": 1
      },
      "aspect_ratio": "",
      "name": "25406---ARBO DESODORANTE BODY SPRAY 100ml PK V4",
      "attributes": [],
      "hidden": false
    },
    {
      "color": {
        "red": 0,
        "green": 1,
        "blue": 1
      },
      "aspect_ratio": "",
      "name": "25411---MEN DES COL 100ml",
      "attributes": [],
      "hidden": false
    },
    {
      "color": {
        "red": 0,
        "green": 1,
        "blue": 1
      },
      "aspect_ratio": "",
      "name": "25421---GLAMOUR DESODORANTE BODY SPR 100ml PK V4",
      "attributes": [],
      "hidden": false
    },
    {
      "color": {
        "red": 0,
        "green": 1,
        "blue": 1
      },
      "aspect_ratio": "",
      "name": "25422---LINDA DESODORANTE BODY SPRAY 100ml PK V4",
      "attributes": [],
      "hidden": false
    },
    {
      "color": {
        "red": 0,
        "green": 1,
        "blue": 1
      },
      "aspect_ratio": "",
      "name": "25427---UOMINI DES BODY SPRAY 100ml PACK VS5",
      "attributes": [],
      "hidden": false
    },
    {
      "color": {
        "red": 0,
        "green": 1,
        "blue": 1
      },
      "aspect_ratio": "",
      "name": "25455---BOTI BABY CREM HID BNH POS BNH 150g",
      "attributes": [],
      "hidden": false
    },
    {
      "color": {
        "red": 0,
        "green": 1,
        "blue": 1
      },
      "aspect_ratio": "",
      "name": "25458---FLORATTA DES COL BLUE 75ml",
      "attributes": [],
      "hidden": false
    },
    {
      "color": {
        "red": 0,
        "green": 1,
        "blue": 1
      },
      "aspect_ratio": "",
      "name": "25461---BOT MEN DES ANTIT AER 6/1 C/FRAG 75g V3",
      "attributes": [],
      "hidden": false
    },
    {
      "color": {
        "red": 0,
        "green": 1,
        "blue": 1
      },
      "aspect_ratio": "",
      "name": "25472---FLORATTA DES COL ROSE 75ml",
      "attributes": [],
      "hidden": false
    },
    {
      "color": {
        "red": 0,
        "green": 1,
        "blue": 1
      },
      "aspect_ratio": "",
      "name": "25475---FLORATTA DES COL GOLD 75ml",
      "attributes": [],
      "hidden": false
    },
    {
      "color": {
        "red": 0,
        "green": 1,
        "blue": 1
      },
      "aspect_ratio": "",
      "name": "25477---FLORATTA DES COL CER FL 75ml",
      "attributes": [],
      "hidden": false
    },
    {
      "color": {
        "red": 0,
        "green": 1,
        "blue": 1
      },
      "aspect_ratio": "",
      "name": "25546---FLORATTA CREM HID DES CPO BLUE 200g",
      "attributes": [],
      "hidden": false
    },
    {
      "color": {
        "red": 0,
        "green": 1,
        "blue": 1
      },
      "aspect_ratio": "",
      "name": "25548---FLORATTA CREM HID DES CPO GOLD 200g",
      "attributes": [],
      "hidden": false
    },
    {
      "color": {
        "red": 0,
        "green": 1,
        "blue": 1
      },
      "aspect_ratio": "",
      "name": "25654---FLORATTA CREM HID DES CPO ROSE 200g",
      "attributes": [],
      "hidden": false
    },
    {
      "color": {
        "red": 0,
        "green": 1,
        "blue": 1
      },
      "aspect_ratio": "",
      "name": "26329---MALBEC NOIR BALM APOS BARBA 110g",
      "attributes": [],
      "hidden": false
    },
    {
      "color": {
        "red": 0,
        "green": 1,
        "blue": 1
      },
      "aspect_ratio": "",
      "name": "27080---MALBEC SPORT BALM APOS BARBA 110g",
      "attributes": [],
      "hidden": false
    },
    {
      "color": {
        "red": 0,
        "green": 1,
        "blue": 1
      },
      "aspect_ratio": "",
      "name": "27370---MAKE B DES COL U/B 70ml",
      "attributes": [],
      "hidden": false
    },
    {
      "color": {
        "red": 0,
        "green": 1,
        "blue": 1
      },
      "aspect_ratio": "",
      "name": "27691---MALBEC SPORT CREME BARBEAR NAO ESP 110g",
      "attributes": [],
      "hidden": false
    },
    {
      "color": {
        "red": 0,
        "green": 1,
        "blue": 1
      },
      "aspect_ratio": "",
      "name": "28231---ARBO DES COL LIBERTE 100ml",
      "attributes": [],
      "hidden": false
    },
    {
      "color": {
        "red": 0,
        "green": 1,
        "blue": 1
      },
      "aspect_ratio": "",
      "name": "28255---NSPA SEIVA HID DES CPO L/PATC 250ml V2",
      "attributes": [],
      "hidden": false
    },
    {
      "color": {
        "red": 0,
        "green": 1,
        "blue": 1
      },
      "aspect_ratio": "",
      "name": "28356---CUIDE BEM CONDICIONADOR CACHOS EX 250ml",
      "attributes": [],
      "hidden": false
    },
    {
      "color": {
        "red": 0,
        "green": 1,
        "blue": 1
      },
      "aspect_ratio": "",
      "name": "28360---CUIDE SE BEM CONDICIONADOR REST EX 250ml",
      "attributes": [],
      "hidden": false
    },
    {
      "color": {
        "red": 0,
        "green": 1,
        "blue": 1
      },
      "aspect_ratio": "",
      "name": "28362---CUIDE BEM CONDICIONADOR RES H IMED 250ml",
      "attributes": [],
      "hidden": false
    },
    {
      "color": {
        "red": 0,
        "green": 1,
        "blue": 1
      },
      "aspect_ratio": "",
      "name": "28390---CUIDE-SE BEM OLEO BIF D/CPO CARAM 200ml",
      "attributes": [],
      "hidden": false
    },
    {
      "color": {
        "red": 0,
        "green": 1,
        "blue": 1
      },
      "aspect_ratio": "",
      "name": "28391---CBEM PROT SOL OL CAN FPS15 120ml",
      "attributes": [],
      "hidden": false
    },
    {
      "color": {
        "red": 0,
        "green": 1,
        "blue": 1
      },
      "aspect_ratio": "",
      "name": "28396---CBEM AUTOBR SOLAR 120g V2",
      "attributes": [],
      "hidden": false
    },
    {
      "color": {
        "red": 0,
        "green": 1,
        "blue": 1
      },
      "aspect_ratio": "",
      "name": "28592---COFFEE DES ANTIT AER MAN 75g V6",
      "attributes": [],
      "hidden": false
    },
    {
      "color": {
        "red": 0,
        "green": 1,
        "blue": 1
      },
      "aspect_ratio": "",
      "name": "28597---LINDA ANTITRANSPIRANTE AEROSOL 75g VS6",
      "attributes": [],
      "hidden": false
    },
    {
      "color": {
        "red": 0,
        "green": 1,
        "blue": 1
      },
      "aspect_ratio": "",
      "name": "28755---FLORATTA BUQUE DE FLORES DES COL 100ml",
      "attributes": [],
      "hidden": false
    },
    {
      "color": {
        "red": 0,
        "green": 1,
        "blue": 1
      },
      "aspect_ratio": "",
      "name": "28812---ACCORDES DES COL HARMONIA 80ml V3",
      "attributes": [],
      "hidden": false
    },
    {
      "color": {
        "red": 0,
        "green": 1,
        "blue": 1
      },
      "aspect_ratio": "",
      "name": "28813---ACCORDES DES COL 80ml V4",
      "attributes": [],
      "hidden": false
    },
    {
      "color": {
        "red": 0,
        "green": 1,
        "blue": 1
      },
      "aspect_ratio": "",
      "name": "28914---LILY EDP 75ml V3",
      "attributes": [],
      "hidden": false
    },
    {
      "color": {
        "red": 0,
        "green": 1,
        "blue": 1
      },
      "aspect_ratio": "",
      "name": "28922---MALBEC DES COL NOIR 100ml",
      "attributes": [],
      "hidden": false
    },
    {
      "color": {
        "red": 0,
        "green": 1,
        "blue": 1
      },
      "aspect_ratio": "",
      "name": "29013---COFFEE MAN PARADISO DES COL 100ml",
      "attributes": [],
      "hidden": false
    },
    {
      "color": {
        "red": 0,
        "green": 1,
        "blue": 1
      },
      "aspect_ratio": "",
      "name": "29014---COFFEE WOMAN PARADISO DES COL 100ml",
      "attributes": [],
      "hidden": false
    },
    {
      "color": {
        "red": 0,
        "green": 1,
        "blue": 1
      },
      "aspect_ratio": "",
      "name": "29078---MEN DES COL ONLY 100ml",
      "attributes": [],
      "hidden": false
    },
    {
      "color": {
        "red": 0,
        "green": 1,
        "blue": 1
      },
      "aspect_ratio": "",
      "name": "29081---COFFEE MAN PAR SHOWER GEL CAB/CPO 200g",
      "attributes": [],
      "hidden": false
    },
    {
      "color": {
        "red": 0,
        "green": 1,
        "blue": 1
      },
      "aspect_ratio": "",
      "name": "29096---ELYSEE ANTITRANSPIRANTE AEROSOL 75g",
      "attributes": [],
      "hidden": false
    },
    {
      "color": {
        "red": 0,
        "green": 1,
        "blue": 1
      },
      "aspect_ratio": "",
      "name": "29097---GLAMOUR DES ANTIT AER MYRIAD 75g",
      "attributes": [],
      "hidden": false
    },
    {
      "color": {
        "red": 0,
        "green": 1,
        "blue": 1
      },
      "aspect_ratio": "",
      "name": "29307---COFFEE DES ANTIT AER WOMAN SEDUC 75g V2",
      "attributes": [],
      "hidden": false
    },
    {
      "color": {
        "red": 0,
        "green": 1,
        "blue": 1
      },
      "aspect_ratio": "",
      "name": "29316---MEN ONLY ESPUMA HID P/BARBEAR 190g",
      "attributes": [],
      "hidden": false
    },
    {
      "color": {
        "red": 0,
        "green": 1,
        "blue": 1
      },
      "aspect_ratio": "",
      "name": "29410---MALBEC SPORT DES COL 100ml",
      "attributes": [],
      "hidden": false
    },
    {
      "color": {
        "red": 0,
        "green": 1,
        "blue": 1
      },
      "aspect_ratio": "",
      "name": "29512---MEN DES ANTIT AER MEN 6/1 S/PERF 75g V2",
      "attributes": [],
      "hidden": false
    },
    {
      "color": {
        "red": 0,
        "green": 1,
        "blue": 1
      },
      "aspect_ratio": "",
      "name": "29523---CBEM SOL PROT CPO PROT/BRONZ FPS15 120ml",
      "attributes": [],
      "hidden": false
    },
    {
      "color": {
        "red": 0,
        "green": 1,
        "blue": 1
      },
      "aspect_ratio": "",
      "name": "29537---N/SPA LOCAO HID DES CPO BAUN/MAD 400ml",
      "attributes": [],
      "hidden": false
    },
    {
      "color": {
        "red": 0,
        "green": 1,
        "blue": 1
      },
      "aspect_ratio": "",
      "name": "29633---N/SPA LOCAO HID DES CPO LICHIA 400ml VS4",
      "attributes": [],
      "hidden": false
    },
    {
      "color": {
        "red": 0,
        "green": 1,
        "blue": 1
      },
      "aspect_ratio": "",
      "name": "70043---MATCH SHAMP PATRULHA FRIZZ 250ml",
      "attributes": [],
      "hidden": false
    },
    {
      "color": {
        "red": 0,
        "green": 1,
        "blue": 1
      },
      "aspect_ratio": "",
      "name": "70045---MATCH SHAMP FONT HID 250ml",
      "attributes": [],
      "hidden": false
    },
    {
      "color": {
        "red": 0,
        "green": 1,
        "blue": 1
      },
      "aspect_ratio": "",
      "name": "70047---MATCH COND PATRULHA FRIZZ 250ml",
      "attributes": [],
      "hidden": false
    },
    {
      "color": {
        "red": 0,
        "green": 1,
        "blue": 1
      },
      "aspect_ratio": "",
      "name": "70049---MATCH COND FONT HID 250ml",
      "attributes": [],
      "hidden": false
    },
    {
      "color": {
        "red": 0,
        "green": 1,
        "blue": 1
      },
      "aspect_ratio": "",
      "name": "70055---MATCH TONICO CRS COMPLEXO 100ml",
      "attributes": [],
      "hidden": false
    },
    {
      "color": {
        "red": 0,
        "green": 1,
        "blue": 1
      },
      "aspect_ratio": "",
      "name": "70491---ARBO OCEAN DES COL 100ml",
      "attributes": [],
      "hidden": false
    },
    {
      "color": {
        "red": 0,
        "green": 1,
        "blue": 1
      },
      "aspect_ratio": "",
      "name": "70519---LINDA SUMMER DES COL 100ml",
      "attributes": [],
      "hidden": false
    },
    {
      "color": {
        "red": 0,
        "green": 1,
        "blue": 1
      },
      "aspect_ratio": "",
      "name": "70570---GLAMOUR LOVE ME DES COLONIA 75ml",
      "attributes": [],
      "hidden": false
    },
    {
      "color": {
        "red": 0,
        "green": 1,
        "blue": 1
      },
      "aspect_ratio": "",
      "name": "70571---GLAMOUR LOVE ME CREME DES CPO 200ml",
      "attributes": [],
      "hidden": false
    },
    {
      "color": {
        "red": 0,
        "green": 1,
        "blue": 1
      },
      "aspect_ratio": "",
      "name": "70590---ARBO OCEAN CREME HID DES CPO 200ml",
      "attributes": [],
      "hidden": false
    },
    {
      "color": {
        "red": 0,
        "green": 1,
        "blue": 1
      },
      "aspect_ratio": "",
      "name": "70687---DR BOTICA SHAMP POC ESPUM 200ml",
      "attributes": [],
      "hidden": false
    },
    {
      "color": {
        "red": 0,
        "green": 1,
        "blue": 1
      },
      "aspect_ratio": "",
      "name": "70690---DR BOTICA COND POC BRLH 200ml",
      "attributes": [],
      "hidden": false
    },
    {
      "color": {
        "red": 0,
        "green": 1,
        "blue": 1
      },
      "aspect_ratio": "",
      "name": "70823---DREAM DES COL SPLSH AMOR NO AR 200ml",
      "attributes": [],
      "hidden": false
    },
    {
      "color": {
        "red": 0,
        "green": 1,
        "blue": 1
      },
      "aspect_ratio": "",
      "name": "70824---DREAM DES COL SPLSH JARDIM MIST 200ml",
      "attributes": [],
      "hidden": false
    },
    {
      "color": {
        "red": 0,
        "green": 1,
        "blue": 1
      },
      "aspect_ratio": "",
      "name": "70825---DREAM DES COL SPLSH FILT SNH 200ml",
      "attributes": [],
      "hidden": false
    },
    {
      "color": {
        "red": 0,
        "green": 1,
        "blue": 1
      },
      "aspect_ratio": "",
      "name": "70899---ELYSEE EDP NUIT 50ml",
      "attributes": [],
      "hidden": false
    },
    {
      "color": {
        "red": 0,
        "green": 1,
        "blue": 1
      },
      "aspect_ratio": "",
      "name": "71050---MATCH CREM MODEL RESP/CACH CACH 290ml",
      "attributes": [],
      "hidden": false
    },
    {
      "color": {
        "red": 0,
        "green": 1,
        "blue": 1
      },
      "aspect_ratio": "",
      "name": "71096---MALBEC DES COL GOLD 100ml",
      "attributes": [],
      "hidden": false
    },
    {
      "color": {
        "red": 0,
        "green": 1,
        "blue": 1
      },
      "aspect_ratio": "",
      "name": "71132---NSPA COND AMEI 300ml",
      "attributes": [],
      "hidden": false
    },
    {
      "color": {
        "red": 0,
        "green": 1,
        "blue": 1
      },
      "aspect_ratio": "",
      "name": "71133---EGEO DES COL CHOC 90ml V2",
      "attributes": [],
      "hidden": false
    },
    {
      "color": {
        "red": 0,
        "green": 1,
        "blue": 1
      },
      "aspect_ratio": "",
      "name": "71136---EGEO DES COL BOMB FOR HER CARAMEL 90ml",
      "attributes": [],
      "hidden": false
    },
    {
      "color": {
        "red": 0,
        "green": 1,
        "blue": 1
      },
      "aspect_ratio": "",
      "name": "71137---EGEO DES COL BOMB FOR HIM CARAMEL 90ml",
      "attributes": [],
      "hidden": false
    },
    {
      "color": {
        "red": 0,
        "green": 1,
        "blue": 1
      },
      "aspect_ratio": "",
      "name": "71146---NSPA LOC HID DES CPO L/PATC 400ml",
      "attributes": [],
      "hidden": false
    },
    {
      "color": {
        "red": 0,
        "green": 1,
        "blue": 1
      },
      "aspect_ratio": "",
      "name": "71148---NSPA LOC HID DES CPO ACAI 200ml",
      "attributes": [],
      "hidden": false
    },
    {
      "color": {
        "red": 0,
        "green": 1,
        "blue": 1
      },
      "aspect_ratio": "",
      "name": "71155---NSPA SHAMP BAUN 300ml",
      "attributes": [],
      "hidden": false
    },
    {
      "color": {
        "red": 0,
        "green": 1,
        "blue": 1
      },
      "aspect_ratio": "",
      "name": "71161---NSPA COND BAUN 300ml",
      "attributes": [],
      "hidden": false
    },
    {
      "color": {
        "red": 0,
        "green": 1,
        "blue": 1
      },
      "aspect_ratio": "",
      "name": "71162---CBEM LOC HID DES EFEITO MATE",
      "attributes": [],
      "hidden": false
    },
    {
      "color": {
        "red": 0,
        "green": 1,
        "blue": 1
      },
      "aspect_ratio": "",
      "name": "71182---NSPA SAB LIQ CPO F/AMEI 200ml V2",
      "attributes": [],
      "hidden": false
    },
    {
      "color": {
        "red": 0,
        "green": 1,
        "blue": 1
      },
      "aspect_ratio": "",
      "name": "71193---NSPA LOC HID DES CPO PITAY 400ml V3",
      "attributes": [],
      "hidden": false
    },
    {
      "color": {
        "red": 0,
        "green": 1,
        "blue": 1
      },
      "aspect_ratio": "",
      "name": "71196---NSPA SAB LIQ CPO LICH 200ml",
      "attributes": [],
      "hidden": false
    },
    {
      "color": {
        "red": 0,
        "green": 1,
        "blue": 1
      },
      "aspect_ratio": "",
      "name": "71197---NSPA SAB LIQ CPO ACAI 200ml",
      "attributes": [],
      "hidden": false
    },
    {
      "color": {
        "red": 0,
        "green": 1,
        "blue": 1
      },
      "aspect_ratio": "",
      "name": "71212---NSPA LOC HID DES CPO B/MAD 200ml V2",
      "attributes": [],
      "hidden": false
    },
    {
      "color": {
        "red": 0,
        "green": 1,
        "blue": 1
      },
      "aspect_ratio": "",
      "name": "71640---FLORATTA DES COL AMOR LAVAN 75ml",
      "attributes": [],
      "hidden": false
    },
    {
      "color": {
        "red": 0,
        "green": 1,
        "blue": 1
      },
      "aspect_ratio": "",
      "name": "71641---FLORATTA DES COL F/SECRET 75ml",
      "attributes": [],
      "hidden": false
    },
    {
      "color": {
        "red": 0,
        "green": 1,
        "blue": 1
      },
      "aspect_ratio": "",
      "name": "71642---FLORATTA CREM HID CPO AMOR LAVAN 200g",
      "attributes": [],
      "hidden": false
    },
    {
      "color": {
        "red": 0,
        "green": 1,
        "blue": 1
      },
      "aspect_ratio": "",
      "name": "71643---FLORATTA CREM HID DES CPO F/SECRET 200g",
      "attributes": [],
      "hidden": false
    },
    {
      "color": {
        "red": 0,
        "green": 1,
        "blue": 1
      },
      "aspect_ratio": "",
      "name": "71656---MALBEC DES ANTIT AER GOLD 75g",
      "attributes": [],
      "hidden": false
    },
    {
      "color": {
        "red": 0,
        "green": 1,
        "blue": 1
      },
      "aspect_ratio": "",
      "name": "71673---MATCH SHAMP RESP/CACH 250ml",
      "attributes": [],
      "hidden": false
    },
    {
      "color": {
        "red": 0,
        "green": 1,
        "blue": 1
      },
      "aspect_ratio": "",
      "name": "71676---MATCH COND CO WASH FONT HID 300ml",
      "attributes": [],
      "hidden": false
    },
    {
      "color": {
        "red": 0,
        "green": 1,
        "blue": 1
      },
      "aspect_ratio": "",
      "name": "71677---MATCH COND RESP/CACHO CO WASH 300ml",
      "attributes": [],
      "hidden": false
    },
    {
      "color": {
        "red": 0,
        "green": 1,
        "blue": 1
      },
      "aspect_ratio": "",
      "name": "71747---NSPA LOC HID DES CPO AMEIXA 400ml V4 PRM",
      "attributes": [],
      "hidden": false
    },
    {
      "color": {
        "red": 0,
        "green": 1,
        "blue": 1
      },
      "aspect_ratio": "",
      "name": "71756---FLORATTA DES SPR BLUE 100ml PCK V6",
      "attributes": [],
      "hidden": false
    },
    {
      "color": {
        "red": 0,
        "green": 1,
        "blue": 1
      },
      "aspect_ratio": "",
      "name": "71757---FLORATTA DES ANTIT AER BLUE 75g V8",
      "attributes": [],
      "hidden": false
    },
    {
      "color": {
        "red": 0,
        "green": 1,
        "blue": 1
      },
      "aspect_ratio": "",
      "name": "71758---FLORATTA DES BDY SPR ROSE 100ml PCK V6",
      "attributes": [],
      "hidden": false
    },
    {
      "color": {
        "red": 0,
        "green": 1,
        "blue": 1
      },
      "aspect_ratio": "",
      "name": "71760---FLORATTA DES ANTIT AER GOLD 75g V3",
      "attributes": [],
      "hidden": false
    },
    {
      "color": {
        "red": 0,
        "green": 1,
        "blue": 1
      },
      "aspect_ratio": "",
      "name": "72011---CBEM SAB LIQ MOMENT ESP 100ml",
      "attributes": [],
      "hidden": false
    },
    {
      "color": {
        "red": 0,
        "green": 1,
        "blue": 1
      },
      "aspect_ratio": "",
      "name": "72024---MEN COMBAT BB CREAM HID MASC 50ml",
      "attributes": [],
      "hidden": false
    },
    {
      "color": {
        "red": 0,
        "green": 1,
        "blue": 1
      },
      "aspect_ratio": "",
      "name": "72027---CAPRICHO DES COL DAY E NIGHT 100ml V4",
      "attributes": [],
      "hidden": false
    },
    {
      "color": {
        "red": 0,
        "green": 1,
        "blue": 1
      },
      "aspect_ratio": "",
      "name": "72028---CAPRICHO DES COL SWEET ROCK 100ml V2",
      "attributes": [],
      "hidden": false
    },
    {
      "color": {
        "red": 0,
        "green": 1,
        "blue": 1
      },
      "aspect_ratio": "",
      "name": "72030---MEN ENERGETICO FAC SRUM HID 50ml",
      "attributes": [],
      "hidden": false
    },
    {
      "color": {
        "red": 0,
        "green": 1,
        "blue": 1
      },
      "aspect_ratio": "",
      "name": "72047---CPRCH DES COL BEMYSELF 50ml",
      "attributes": [],
      "hidden": false
    },
    {
      "color": {
        "red": 0,
        "green": 1,
        "blue": 1
      },
      "aspect_ratio": "",
      "name": "72050---CAPRICHO DES COL 50ml",
      "attributes": [],
      "hidden": false
    },
    {
      "color": {
        "red": 0,
        "green": 1,
        "blue": 1
      },
      "aspect_ratio": "",
      "name": "72073---NSPA COND O/IND 300ml",
      "attributes": [],
      "hidden": false
    },
    {
      "color": {
        "red": 0,
        "green": 1,
        "blue": 1
      },
      "aspect_ratio": "",
      "name": "72075---NSPA COND M/ARG 300ml",
      "attributes": [],
      "hidden": false
    },
    {
      "color": {
        "red": 0,
        "green": 1,
        "blue": 1
      },
      "aspect_ratio": "",
      "name": "72081---NSPA LOC HID DES CPO L/PATC 200ml",
      "attributes": [],
      "hidden": false
    },
    {
      "color": {
        "red": 0,
        "green": 1,
        "blue": 1
      },
      "aspect_ratio": "",
      "name": "72203---ZAAD EDP 30ml",
      "attributes": [],
      "hidden": false
    },
    {
      "color": {
        "red": 0,
        "green": 1,
        "blue": 1
      },
      "aspect_ratio": "",
      "name": "72216---NSPA LOC HID DES CPO O/IND 400ml",
      "attributes": [],
      "hidden": false
    },
    {
      "color": {
        "red": 0,
        "green": 1,
        "blue": 1
      },
      "aspect_ratio": "",
      "name": "72246---NSPA DES COL BDY SPLSH AMEI 200ml",
      "attributes": [],
      "hidden": false
    },
    {
      "color": {
        "red": 0,
        "green": 1,
        "blue": 1
      },
      "aspect_ratio": "",
      "name": "72249---NSPA DES COL BDY SPLSH ACAI 200ml",
      "attributes": [],
      "hidden": false
    },
    {
      "color": {
        "red": 0,
        "green": 1,
        "blue": 1
      },
      "aspect_ratio": "",
      "name": "72250---NSPA DES COL BDY SPLSH B/MAD 200ml",
      "attributes": [],
      "hidden": false
    },
    {
      "color": {
        "red": 0,
        "green": 1,
        "blue": 1
      },
      "aspect_ratio": "",
      "name": "72251---NSPA DES COL BDY SPLSH CVR 200ml",
      "attributes": [],
      "hidden": false
    },
    {
      "color": {
        "red": 0,
        "green": 1,
        "blue": 1
      },
      "aspect_ratio": "",
      "name": "72255---NSPA CREM S/ENXAGUE AMEI 150ml V2",
      "attributes": [],
      "hidden": false
    },
    {
      "color": {
        "red": 0,
        "green": 1,
        "blue": 1
      },
      "aspect_ratio": "",
      "name": "72745---EGEO DES AER ANTIT RED 75g",
      "attributes": [],
      "hidden": false
    },
    {
      "color": {
        "red": 0,
        "green": 1,
        "blue": 1
      },
      "aspect_ratio": "",
      "name": "72746---EGEO DES ANTIT AER CHOC 75g",
      "attributes": [],
      "hidden": false
    },
    {
      "color": {
        "red": 0,
        "green": 1,
        "blue": 1
      },
      "aspect_ratio": "",
      "name": "72928--- NSPA LOC HID DES CPO AMEIXA NEGRA 200ml",
      "attributes": [],
      "hidden": false
    },
    {
      "color": {
        "red": 0,
        "green": 1,
        "blue": 1
      },
      "aspect_ratio": "",
      "name": "72931---NSPA DES COL BDY SPLSH AMEI NEGRA 200ml",
      "attributes": [],
      "hidden": false
    },
    {
      "color": {
        "red": 0,
        "green": 1,
        "blue": 1
      },
      "aspect_ratio": "",
      "name": "73009---CBEM LOC HID DES LAVANDINHA 200ml",
      "attributes": [],
      "hidden": false
    },
    {
      "color": {
        "red": 0,
        "green": 1,
        "blue": 1
      },
      "aspect_ratio": "",
      "name": "73012---CBEM LOC HID DES CAST 200ml",
      "attributes": [],
      "hidden": false
    },
    {
      "color": {
        "red": 0,
        "green": 1,
        "blue": 1
      },
      "aspect_ratio": "",
      "name": "73073---NSPA SAB LIQ CPO AMEIXA NEGRA 200ml",
      "attributes": [],
      "hidden": false
    },
    {
      "color": {
        "red": 0,
        "green": 1,
        "blue": 1
      },
      "aspect_ratio": "",
      "name": "73110---NSPA DES COL BDY SPLSH VERB 200ml",
      "attributes": [],
      "hidden": false
    },
    {
      "color": {
        "red": 0,
        "green": 1,
        "blue": 1
      },
      "aspect_ratio": "",
      "name": "73236---GLAMOUR DES COL JUST SHINE 75ml",
      "attributes": [],
      "hidden": false
    },
    {
      "color": {
        "red": 0,
        "green": 1,
        "blue": 1
      },
      "aspect_ratio": "",
      "name": "73237---GLAMOUR LOC HID IL DES CPO JUST SH 200ml",
      "attributes": [],
      "hidden": false
    },
    {
      "color": {
        "red": 0,
        "green": 1,
        "blue": 1
      },
      "aspect_ratio": "",
      "name": "73554---FLORATTA DES ANTIT AER AMOR DE LAVAN 75g",
      "attributes": [],
      "hidden": false
    },
    {
      "color": {
        "red": 0,
        "green": 1,
        "blue": 1
      },
      "aspect_ratio": "",
      "name": "73598---NSPA LOC HID DES CPO VINO 400ml",
      "attributes": [],
      "hidden": false
    },
    {
      "color": {
        "red": 0,
        "green": 1,
        "blue": 1
      },
      "aspect_ratio": "",
      "name": "73695---FLORATTA DES COL L AMORE 75ml",
      "attributes": [],
      "hidden": false
    },
    {
      "color": {
        "red": 0,
        "green": 1,
        "blue": 1
      },
      "aspect_ratio": "",
      "name": "73782---NSPA LOC HID DES CPO LICHIA 200ml V2",
      "attributes": [],
      "hidden": false
    },
    {
      "color": {
        "red": 0,
        "green": 1,
        "blue": 1
      },
      "aspect_ratio": "",
      "name": "73815---COFFEE WOMAN DES BDY SPR SEDUC 100ml PCK",
      "attributes": [],
      "hidden": false
    },
    {
      "color": {
        "red": 0,
        "green": 1,
        "blue": 1
      },
      "aspect_ratio": "",
      "name": "73817---GLAM DES BDY SPR MYRIAD 100ml PCK",
      "attributes": [],
      "hidden": false
    },
    {
      "color": {
        "red": 0,
        "green": 1,
        "blue": 1
      },
      "aspect_ratio": "",
      "name": "73818---MALBEC DES BDY SPR NOIR 100ml PCK",
      "attributes": [],
      "hidden": false
    },
    {
      "color": {
        "red": 0,
        "green": 1,
        "blue": 1
      },
      "aspect_ratio": "",
      "name": "73856---MAKE B DES COL B/T 70ml V2",
      "attributes": [],
      "hidden": false
    },
    {
      "color": {
        "red": 0,
        "green": 1,
        "blue": 1
      },
      "aspect_ratio": "",
      "name": "75030---MALBEC DES COL CLUB INTENSO 100ml",
      "attributes": [],
      "hidden": false
    }
  ],
  "attributes" : [

  ]
}